<?xml version="1.0" encoding="utf-8"?>
<!-- Generator: Adobe Illustrator 19.2.0, SVG Export Plug-In . SVG Version: 6.00 Build 0)  -->
<svg version="1.1" id="Layer_1" xmlns="http://www.w3.org/2000/svg" xmlns:xlink="http://www.w3.org/1999/xlink" x="0px" y="0px"
	 viewBox="0 0 1080 1080" style="enable-background:new 0 0 1080 1080;" xml:space="preserve">
  <style type="text/css">
	.st0{fill:#6BB435;}
	.st1{fill:#0099C5;}
	.st2{fill:#FF7800;}
</style>
  <g>
    <g>
      <path class="st0" d="M189.4,148.8C114.7,159.3,62.7,228.3,73.1,303l80.6,576.8l339.2-773.3L189.4,148.8z"/>
      <path class="st1" d="M1007.9,629.4L976.2,186c-5.6-78.8-76.8-136.4-155.1-125.5L690.5,78.8l287.5,646
			C999.2,698.5,1010.4,664.6,1007.9,629.4z"/>
      <path class="st2" d="M277.1,1020c22.3,2.5,45.6-0.4,68.2-10L839,801.2L604.3,273.9L277.1,1020z"/>
    </g>
  </g>
</svg>
