{
    "docs": [
        {
            "type": "category",
            "label": "Introduction",
            "items": [
                "doc1"
            ],
            "collapsed": false
        },
        {
            "type": "category",
            "label": "Powering MDX",
            "items": [
                "doc2"
            ],
            "collapsed": false
        }
    ]
}
